{
  "defaultSeverity": "error",
  "extends": [
    "tslint:recommended"
  ],
  "linterOptions": {
    "exclude": [
      "node_modules/**"
    ]
  },
  "rules": {
    "interface-name": false,
    "no-consecutive-blank-lines": false,
    "object-literal-sort-keys": false,
    "ordered-imports": false,
    "quotemark": false,
    "eofline": false,
    "trailing-comma": false,
    "whitespace": false,
    "semicolon": false,
    "member-access": false,
    "no-console": false
  }
}
